Práctica I
…
\[\Phi_1 = - 0.045*Superficie - 0.050*Densidad + 0.056*Pob.0.14 + 0.167*Pob.15.29 + 0.009*Pob.30.44 + 0.156*Pob.45.64- 0.171*Pob.65+ - 0.212*N.Española + 0.205*Extranjeros + 0.041*N.hogares - 0.273*Renta + 0.287*T.paro + 0.286*T.paro.H + 0.283*T.paro.M + 0.149*Paro.LD + 0.276*Analfabetos + 0.276*Primaria.inc + 0.282*ESO + 0.052*fp.bach - 0.248*T.medios - 0.274*T.superiores - 0.200*S.M2.vivienda - 0.266*Valor.V \]

\[\Phi_2 = 0.235*Superficie - 0.414*Densidad + 0.390*Pob.0.14 - 0.232*Pob.15.29 -0.263*Pob.30.44 + 0.177*Pob.45.64 - 0.066*Pob.65+ + 0.267*N.Española - 0.302*Extranjeros - 0.189*N.hogares + 0.039*Renta - 0.009*T.paro + 0.028*T.paro.H - 0.058*T.paro.M + 0.275*Paro.LD + 0.095*Analfabetos + 0.049*Primaria.inc + 0.071*ESO + 0.311*fp.bach + 0.153*T.medios - 0.130*T.superiores + 0.130*S.M2.vivienda - 0.111*Valor.V \]

# Phi_3 se obtiene de forma análoga a las anteriores. Sus parámetros están en pca_fit$svd$V[ ,3], vistos arriba.

Ejercicio 5.3

Obtén las nuevas coordenadas (scores) de las observaciones proyectados en las nuevas direcciones

pca_scores <- as_tibble(pca_fit$ind$coord)
pca_scores # Nuevas coordenadas (21 filas porque hay 21 observaciones originales!)

# A tibble: 21 × 20
    Dim.1  Dim.2   Dim.3  Dim.4  Dim.5  Dim.6  Dim.7  Dim.8   Dim.9
    <dbl>  <dbl>   <dbl>  <dbl>  <dbl>  <dbl>  <dbl>  <dbl>   <dbl>
 1 -0.131 -4.89   1.81   -2.17  -0.180  1.17   0.342 -0.149  0.890 
 2 -2.04  -0.516 -0.380  -1.02  -1.71   0.367  0.951  0.103 -1.01  
 3 -4.59   0.165 -1.39    0.106 -0.770 -0.586 -0.193 -0.253 -0.312 
 4 -4.33  -2.23  -0.529   0.157  0.810 -0.335 -0.108  0.102  0.282 
 5 -4.97  -0.248 -0.196   0.333  0.545 -0.894 -0.293  0.477 -0.360 
 6  0.532 -2.83   0.603  -0.424 -0.338 -0.855  0.347 -0.147  0.175 
 7 -4.19  -2.71  -0.314   0.486  0.368 -0.884  0.213 -0.400 -0.463 
 8 -3.01   2.87   3.10    2.92  -0.467  0.666  0.813 -0.923  0.0649
 9 -3.96   0.796 -0.0517  0.514  3.21   0.740 -0.469  0.187  0.650 
10  2.29  -0.186 -0.693   1.69  -1.73   0.651 -0.809  0.129  0.590 
# … with 11 more rows, and 11 more variables: Dim.10 <dbl>,
#   Dim.11 <dbl>, Dim.12 <dbl>, Dim.13 <dbl>, Dim.14 <dbl>,
#   Dim.15 <dbl>, Dim.16 <dbl>, Dim.17 <dbl>, Dim.18 <dbl>,
#   Dim.19 <dbl>, Dim.20 <dbl>
…
# los scores (ahora solo guardaríamos los de las 7 comps seleccionadas)

# los guardamos en formato tibble
pca_scores <- as_tibble(pca_fit$ind$coord)
pca_scores # Nuevas coordenadas (21 filas porque hay 21 observaciones originales!)

# A tibble: 21 × 7
    Dim.1  Dim.2   Dim.3  Dim.4  Dim.5  Dim.6  Dim.7
    <dbl>  <dbl>   <dbl>  <dbl>  <dbl>  <dbl>  <dbl>
 1 -0.131 -4.89   1.81   -2.17  -0.180  1.17   0.342
 2 -2.04  -0.516 -0.380  -1.02  -1.71   0.367  0.951
 3 -4.59   0.165 -1.39    0.106 -0.770 -0.586 -0.193
 4 -4.33  -2.23  -0.529   0.157  0.810 -0.335 -0.108
 5 -4.97  -0.248 -0.196   0.333  0.545 -0.894 -0.293
 6  0.532 -2.83   0.603  -0.424 -0.338 -0.855  0.347
 7 -4.19  -2.71  -0.314   0.486  0.368 -0.884  0.213
 8 -3.01   2.87   3.10    2.92  -0.467  0.666  0.813
 9 -3.96   0.796 -0.0517  0.514  3.21   0.740 -0.469
10  2.29  -0.186 -0.693   1.69  -1.73   0.651 -0.809
# … with 11 more rows
…
# b) Añadir el pca análisis:
receta <-
  receta %>%
  step_pca(all_numeric_predictors(), num_comp = 5, # (*)
           prefix = "PC")

# (*) recuerda que no podemos poner 23 por las variabs orig linealmente dependientes

# c) aplicar:
data_pc <- bake(receta %>% prep(), new_data = NULL)
data_pc

# A tibble: 21 × 6
   Partido       PC1    PC2     PC3    PC4    PC5
   <fct>       <dbl>  <dbl>   <dbl>  <dbl>  <dbl>
 1 Más Madrid  0.128  4.78   1.76   -2.12  -0.176
 2 Más Madrid  1.99   0.503 -0.371  -0.993 -1.67 
 3 PP          4.48  -0.161 -1.36    0.104 -0.751
 4 PP          4.22   2.18  -0.516   0.154  0.790
 5 PP          4.85   0.242 -0.191   0.325  0.532
 6 Más Madrid -0.520  2.76   0.588  -0.414 -0.330
 7 PP          4.09   2.64  -0.306   0.474  0.359
 8 PP          2.93  -2.80   3.02    2.85  -0.455
 9 PP          3.86  -0.777 -0.0504  0.501  3.14 
10 Más Madrid -2.23   0.181 -0.676   1.65  -1.69 
# … with 11 more rows
…
